running
running
running
running
running
running
running
running
running
running
running
running
03-07-2019 08:31 : running
03-07-2019 08:32 : running
03-07-2019 08:33 : running
03-07-2019 08:34 : running
03-07-2019 08:35 : running
03-07-2019 08:36 : running
03-07-2019 08:56 : running
03-07-2019 08:57 : running
03-07-2019 08:58 : running
03-07-2019 08:59 : running
03-07-2019 09:00 : running
03-07-2019 09:01 : running
03-07-2019 09:02 : running
